adder.vcd
$date
	Wed Sep 26 15:54:40 2018
$end
$version
	Icarus Verilog
$end
$timescale
	1ps
$end
$scope module behavioralFullAdder $end
$var wire 1 ! a $end
$var wire 1 " b $end
$var wire 1 # carryin $end
$var wire 1 $ sum $end
$var wire 1 % carryout $end
$upscope $end
$scope module testFullAdder $end
$var wire 4 & sum [3:0] $end
$var wire 1 ' overflow $end
$var wire 1 ( carryout $end
$var reg 4 ) a [3:0] $end
$var reg 4 * b [3:0] $end
$scope module adder $end
$var wire 4 + a [3:0] $end
$var wire 1 , atest $end
$var wire 4 - b [3:0] $end
$var wire 1 . btest $end
$var wire 1 ' overflow $end
$var wire 4 / sum [3:0] $end
$var wire 1 0 cout2 $end
$var wire 1 1 cout1 $end
$var wire 1 2 cout0 $end
$var wire 1 ( carryout $end
$scope module adder0 $end
$var wire 1 3 a $end
$var wire 1 4 ab $end
$var wire 1 5 axorb $end
$var wire 1 6 b $end
$var wire 1 7 carryin $end
$var wire 1 2 carryout $end
$var wire 1 8 caxorb $end
$var wire 1 9 sum $end
$upscope $end
$scope module adder1 $end
$var wire 1 : a $end
$var wire 1 ; ab $end
$var wire 1 < axorb $end
$var wire 1 = b $end
$var wire 1 2 carryin $end
$var wire 1 1 carryout $end
$var wire 1 > caxorb $end
$var wire 1 ? sum $end
$upscope $end
$scope module adder2 $end
$var wire 1 @ a $end
$var wire 1 A ab $end
$var wire 1 B axorb $end
$var wire 1 C b $end
$var wire 1 1 carryin $end
$var wire 1 0 carryout $end
$var wire 1 D caxorb $end
$var wire 1 E sum $end
$upscope $end
$scope module adder3 $end
$var wire 1 F a $end
$var wire 1 G ab $end
$var wire 1 H axorb $end
$var wire 1 I b $end
$var wire 1 0 carryin $end
$var wire 1 ( carryout $end
$var wire 1 J caxorb $end
$var wire 1 K sum $end
$upscope $end
$upscope $end
$upscope $end
$enddefinitions $end
#0
$dumpvars
xK
xJ
0I
xH
xG
0F
xE
xD
0C
xB
xA
0@
x?
x>
0=
x<
x;
0:
x9
x8
07
06
x5
x4
03
x2
x1
x0
bx /
x.
b0 -
x,
b0 +
b0 *
b0 )
x(
x'
bx &
x%
x$
z#
z"
z!
$end
#50000
05
04
0<
0;
0B
0A
0H
0G
08
#100000
bx0 &
bx0 /
09
0>
0D
0J
02
#150000
01
00
0(
bx00 &
bx00 /
0?
#200000
0E
b0 &
b0 /
0K
#250000
0,
0.
#300000
0'
#1000000
1C
1:
b100 *
b100 -
b10 )
b10 +
#1050000
1B
1<
#1100000
1E
b110 &
b110 /
1?
#2000000
1I
b1100 *
b1100 -
#2050000
1H
1.
#2100000
b1110 &
b1110 /
1K
#2150000
1,
0.
#3000000
16
1=
0I
0:
b111 *
b111 -
b0 )
b0 +
#3050000
15
0H
1.
#3100000
19
b111 &
b111 /
0K
1'
#3150000
0,
0.
#3200000
0'
#4000000
06
0C
1I
1:
1@
1F
b1010 *
b1010 -
b1110 )
b1110 +
#4050000
05
1.
0<
1;
1G
1,
#4100000
09
b100 &
b100 /
0?
11
1(
1'
#4150000
b0 &
b0 /
0E
1D
#4200000
10
#4250000
b1000 &
b1000 /
1K
#4300000
0,
0.
#4350000
0'
#5000000
0=
1C
b1100 *
b1100 -
#5050000
1<
0;
0B
1A
#5100000
1?
01
b1110 &
b1110 /
1E
0D
#5150000
b1010 &
b1010 /
0E
#6000000
0I
b100 *
b100 -
#6050000
1H
0G
1.
#6100000
b10 &
b10 /
0K
1J
0(
#6150000
1,
0.
1(
#7000000
1=
0C
13
0:
0F
b10 *
b10 -
b101 )
b101 +
#7050000
1B
0A
15
0H
0,
#7100000
1E
00
19
b1111 &
b1111 /
1K
0J
#7150000
1,
1.
b111 &
b111 /
0K
0(
#7200000
0,
0.
1'
#7250000
0'
#8000000
16
1I
1F
b1011 *
b1011 -
b1101 )
b1101 +
#8050000
05
14
1.
1G
1,
#8100000
b110 &
b110 /
09
12
1(
1'
#8150000
b100 &
b100 /
0?
1>
#8200000
11
#8250000
b0 &
b0 /
0E
1D
#8300000
10
#8350000
b1000 &
b1000 /
1K
#8400000
0,
0.
#8450000
0'
#9000000
0I
0F
b11 *
b11 -
b101 )
b101 +
#9050000
1.
0G
1,
#9100000
0(
1'
#10000000
06
1C
1I
0@
1F
b1110 *
b1110 -
b1001 )
b1001 +
#10050000
15
04
0.
1G
0,
#10100000
b1001 &
b1001 /
19
02
1(
0'
#10150000
b1011 &
b1011 /
1?
0>
#10200000
01
#10250000
b1111 &
b1111 /
1E
0D
#10300000
00
#10350000
b111 &
b111 /
0K
#10400000
1,
1.
#10450000
1'
#11000000
16
0F
b1111 *
b1111 -
b1 )
b1 +
#11050000
05
14
1H
0G
0,
#11100000
09
12
b1110 &
b1110 /
1K
0(
0'
#11150000
1,
0.
b1100 &
b1100 /
0?
1>
#11200000
11
#11250000
b1000 &
b1000 /
0E
1D
#11300000
10
#11350000
b0 &
b0 /
0K
1J
#11400000
0,
1.
1(
#12000000
0=
0C
0I
1:
1@
1F
b1 *
b1 -
b1111 )
b1111 +
#12050000
0.
1,
#13000000
1=
1C
1I
b1111 *
b1111 -
#13050000
0<
1;
0B
1A
0H
1G
1.
#13100000
1?
0>
1E
0D
b1110 &
b1110 /
1K
0J
1'
#13150000
0,
0.
#13200000
0'
#14000000
06
0=
0C
0:
b1000 *
b1000 -
b1101 )
b1101 +
#14050000
15
04
1B
0A
0;
#14100000
19
02
b1011 &
b1011 /
0E
1D
00
01
#14150000
0?
10
0K
b101 &
b101 /
1E
0D
#14200000
1,
1.
b1101 &
b1101 /
1K
00
#14250000
0,
0.
1'
b101 &
b101 /
0K
#14300000
1,
1.
0'
#14350000
1'
#15000000
1=
1C
0I
0F
b110 *
b110 -
b101 )
b101 +
#15050000
1<
0B
1A
0.
0G
0,
#15100000
1?
b11 &
b11 /
0E
10
0(
0'
#15150000
b1011 &
b1011 /
1K
#15200000
1,
1.
#15250000
1'
